<svg width="1500" height="500.00000000000006" xmlns="http://www.w3.org/2000/svg">

 <g>
  <title>Layer 1</title>
  <text font-weight="normal" transform="matrix(15.1091, 0, 0, 7.60071, -1978.43, -676.821)" xml:space="preserve" text-anchor="start" font-family="'Lemonada'" font-size="24" id="svg_1" y="129.07824" x="133.39709" stroke-width="0" stroke="#000" fill="#33666C">CRUISE</text>
 </g>
</svg>